<?xml version="1.0" encoding="UTF-8" standalone="no"?>
<svg width="101px" height="24px" viewBox="0 0 101 24" version="1.1" xmlns="http://www.w3.org/2000/svg" xmlns:xlink="http://www.w3.org/1999/xlink">
    <!-- Generator: Sketch 3.8.3 (29802) - http://www.bohemiancoding.com/sketch -->
    <title>Page 1 + App Store</title>
    <desc>Created with Sketch.</desc>
    <defs>
        <polyline id="path-1" points="0 0.762 20.6230323 0.762 20.6230323 23 0 23"></polyline>
    </defs>
    <g id="Page-1" stroke="none" stroke-width="1" fill="none" fill-rule="evenodd">
        <g id="about_1440" transform="translate(-757.000000, -2712.000000)">
            <g id="Page-1-+-App-Store" transform="translate(757.000000, 2712.000000)">
                <g id="Page-1" transform="translate(0.209677, 0.000000)">
                    <path d="M6.11256129,5.9678 C6.94357742,5.9548 7.68922258,6.1528 8.42514194,6.3928 C8.87793226,6.5408 9.32856129,6.6958 9.79431935,6.8048 C10.6220935,6.9988 11.4260935,6.9198 12.2182065,6.6418 C12.7833839,6.4438 13.3453194,6.2338 13.9375129,6.1078 C15.7270613,5.7288 17.3285774,6.1048 18.7690774,7.1308 C19.1548677,7.4048 19.5060774,7.7138 19.8205452,8.0588 C19.9448194,8.1948 19.9394161,8.2308 19.7740774,8.3238 C18.2871097,9.1668 17.4193516,10.3868 17.2637387,11.9968 C17.1200129,13.4928 17.6171097,14.8058 18.7420613,15.9028 C19.2305129,16.3798 19.8075774,16.7368 20.4602871,16.9928 C20.6439968,17.0648 20.6537226,17.0888 20.5780774,17.2518 C19.8410774,18.8228 18.8739,20.2618 17.6570935,21.5508 C17.2345613,21.9988 16.7515129,22.3918 16.1744484,22.6748 C15.3088516,23.0978 14.433529,23.0858 13.5484806,22.7378 C13.1075774,22.5638 12.6828839,22.3488 12.2171258,22.2338 C11.0240935,21.9388 9.85375484,22.0028 8.7115129,22.4478 C8.26952903,22.6198 7.8405129,22.8268 7.36935161,22.9258 C6.38164194,23.1328 5.50415806,22.8958 4.70880323,22.3438 C3.98044839,21.8398 3.4185129,21.1948 2.8944,20.5168 C1.96180323,19.3108 1.22480323,18.0108 0.7169,16.6038 C0.330029032,15.5308 0.0879645161,14.4308 0.0209645161,13.3018 C-0.0525193548,12.0658 0.0544645161,10.8418 0.588303226,9.6958 C1.42472258,7.8988 2.85225484,6.6798 4.89899677,6.1168 C5.10431935,6.0598 5.31612581,6.0258 5.52793226,6.0008 C5.73541613,5.9758 5.9429,5.9578 6.11256129,5.9678" id="Fill-1" fill="#67B7B8"></path>
                    <g id="Group-5">
                        <mask id="mask-2" fill="white">
                            <use xlink:href="#path-1"></use>
                        </mask>
                        <g id="Clip-4"></g>
                        <path d="M14.9167935,1.3014 C14.9081484,2.3214 14.5526161,3.2124 13.9658258,4.0294 C13.3023097,4.9534 12.4010516,5.5984 11.2566484,5.9424 C10.9086806,6.0464 10.5509871,6.1094 10.1814065,6.1084 C10.0301161,6.1084 9.97068065,6.0594 9.95447097,5.9194 C9.86585806,5.1514 10.0506484,4.4324 10.4018581,3.7444 C11.1010355,2.3734 12.2551645,1.4724 13.7842774,0.9654 C14.0901,0.8644 14.4078097,0.8094 14.7276806,0.7644 C14.8551968,0.7464 14.8843742,0.8234 14.8930194,0.9084 C14.9081484,1.0474 14.9103097,1.1874 14.9167935,1.3014" id="Fill-3" fill="#67B7B8" mask="url(#mask-2)"></path>
                    </g>
                </g>
                <path d="M40.0437419,19 L41.5197419,19 L36.1377419,6.418 L30.6117419,19 L32.0877419,19 L33.5277419,15.616 L38.6397419,15.616 L40.0437419,19 Z M34.0497419,14.356 L36.1017419,9.55 L38.1177419,14.356 L34.0497419,14.356 Z M44.1837419,17.956 C44.7417419,18.676 45.5877419,19.216 46.7937419,19.216 C49.0617419,19.216 50.3757419,17.362 50.3757419,15.31 C50.3757419,13.294 49.0797419,11.35 46.7397419,11.35 C46.1997419,11.35 45.0657419,11.476 44.1837419,12.574 L44.1837419,11.53 L42.8877419,11.53 L42.8877419,23.212 L44.1837419,23.212 L44.1837419,17.956 Z M46.6137419,18.064 C45.0837419,18.064 44.1117419,16.822 44.1117419,15.292 C44.1117419,13.492 45.3897419,12.502 46.5957419,12.502 C47.8017419,12.502 49.0437419,13.474 49.0437419,15.31 C49.0437419,16.804 48.1257419,18.064 46.6137419,18.064 L46.6137419,18.064 Z M53.6517419,17.956 C54.2097419,18.676 55.0557419,19.216 56.2617419,19.216 C58.5297419,19.216 59.8437419,17.362 59.8437419,15.31 C59.8437419,13.294 58.5477419,11.35 56.2077419,11.35 C55.6677419,11.35 54.5337419,11.476 53.6517419,12.574 L53.6517419,11.53 L52.3557419,11.53 L52.3557419,23.212 L53.6517419,23.212 L53.6517419,17.956 Z M56.0817419,18.064 C54.5517419,18.064 53.5797419,16.822 53.5797419,15.292 C53.5797419,13.492 54.8577419,12.502 56.0637419,12.502 C57.2697419,12.502 58.5117419,13.474 58.5117419,15.31 C58.5117419,16.804 57.5937419,18.064 56.0817419,18.064 L56.0817419,18.064 Z M72.7677419,8.668 C72.4977419,8.146 72.0837419,7.66 71.5977419,7.336 C71.0037419,6.94 70.4097419,6.796 69.6717419,6.796 C67.7277419,6.796 66.3057419,8.038 66.3057419,9.892 C66.3057419,10.792 66.6117419,11.35 67.1337419,11.854 C67.6737419,12.376 68.2677419,12.628 68.7357419,12.844 L69.8157419,13.348 C70.4457419,13.636 70.9137419,13.852 71.2557419,14.176 C71.6877419,14.572 71.8497419,15.04 71.8497419,15.58 C71.8497419,16.786 71.0757419,17.956 69.4377419,17.956 C68.8257419,17.956 68.2317419,17.812 67.7097419,17.29 C67.3677419,16.93 67.0797419,16.39 66.9897419,15.76 L65.6937419,16.12 C65.8557419,16.84 66.2157419,17.668 66.8097419,18.244 C67.6377419,19.054 68.6277419,19.216 69.4197419,19.216 C71.5797419,19.216 73.2177419,17.74 73.2177419,15.526 C73.2177419,14.662 72.9657419,13.96 72.3537419,13.348 C71.8497419,12.844 71.2017419,12.52 70.4997419,12.214 L69.3477419,11.71 C68.8977419,11.512 68.4477419,11.314 68.0877419,10.954 C67.7637419,10.648 67.6377419,10.378 67.6377419,9.91 C67.6377419,8.794 68.4657419,8.056 69.6537419,8.056 C70.3377419,8.056 70.7697419,8.29 71.0037419,8.47 C71.2737419,8.686 71.5437419,9.046 71.7057419,9.37 L72.7677419,8.668 Z M77.9697419,12.718 L77.9697419,11.53 L76.6737419,11.53 L76.6737419,8.83 L75.3777419,8.83 L75.3777419,11.53 L74.5857419,11.53 L74.5857419,12.718 L75.3777419,12.718 L75.3777419,19 L76.6737419,19 L76.6737419,12.718 L77.9697419,12.718 Z M82.6857419,19.216 C84.9537419,19.216 86.6457419,17.56 86.6457419,15.292 C86.6457419,13.024 84.9717419,11.35 82.6857419,11.35 C80.3997419,11.35 78.7257419,13.024 78.7257419,15.292 C78.7257419,17.56 80.4177419,19.216 82.6857419,19.216 L82.6857419,19.216 Z M82.6857419,12.502 C84.0537419,12.502 85.3137419,13.456 85.3137419,15.292 C85.3137419,17.11 84.0357419,18.064 82.6857419,18.064 C81.3537419,18.064 80.0577419,17.128 80.0577419,15.292 C80.0577419,13.474 81.3177419,12.502 82.6857419,12.502 L82.6857419,12.502 Z M88.6257419,19 L89.9217419,19 L89.9217419,15.058 C89.9217419,13.834 90.1377419,13.33 90.3537419,13.042 C90.5517419,12.79 90.8757419,12.574 91.3977419,12.574 C91.5957419,12.574 91.8657419,12.628 92.1537419,12.826 L92.7657419,11.656 C92.4417419,11.494 92.0097419,11.35 91.6137419,11.35 C90.6057419,11.35 90.0477419,12.142 89.9217419,12.34 L89.9217419,11.53 L88.6257419,11.53 L88.6257419,19 Z M99.4977419,16.498 C99.3357419,16.858 99.0657419,17.236 98.7237419,17.524 C98.2917419,17.884 97.8057419,18.064 97.1937419,18.064 C95.8977419,18.064 94.8357419,17.074 94.8177419,15.526 L100.631742,15.526 C100.667742,14.536 100.397742,13.384 99.9297419,12.718 C99.4797419,12.07 98.5617419,11.35 97.1037419,11.35 C94.8537419,11.35 93.4857419,13.078 93.4857419,15.31 C93.4857419,18.082 95.3757419,19.216 97.1757419,19.216 C98.1297419,19.216 98.9757419,18.91 99.6597419,18.298 C100.037742,17.956 100.361742,17.506 100.577742,17.092 L99.4977419,16.498 Z M94.9077419,14.446 C95.1057419,13.33 96.0057419,12.502 97.1037419,12.502 C98.2017419,12.502 99.0837419,13.276 99.2997419,14.446 L94.9077419,14.446 Z" id="App-Store" fill="#67B7B8"></path>
            </g>
        </g>
    </g>
</svg>