<?xml version="1.0" encoding="UTF-8" standalone="no"?>
<svg width="13px" height="22px" viewBox="0 0 13 22" version="1.1" xmlns="http://www.w3.org/2000/svg" xmlns:xlink="http://www.w3.org/1999/xlink">
    <!-- Generator: Sketch 3.8.3 (29802) - http://www.bohemiancoding.com/sketch -->
    <title>Group 3</title>
    <desc>Created with Sketch.</desc>
    <defs></defs>
    <g id="Page-1" stroke="none" stroke-width="1" fill="none" fill-rule="evenodd" opacity="0.5">
        <g id="main_1440" transform="translate(-171.000000, -710.000000)" fill="#FFFFFF">
            <g id="Group-9" transform="translate(132.000000, 655.000000)">
                <g id="Group-6" transform="translate(0.000000, 55.000000)">
                    <g id="Group-3" transform="translate(40.606602, 10.606602) rotate(-315.000000) translate(-40.606602, -10.606602) translate(33.106602, 3.106602)">
                        <rect id="Rectangle-38" x="2.13162821e-14" y="2.13162821e-14" width="15" height="2"></rect>
                        <rect id="Rectangle-38" transform="translate(14.000000, 7.500000) rotate(-270.000000) translate(-14.000000, -7.500000) " x="6.5" y="6.5" width="15" height="2"></rect>
                    </g>
                </g>
            </g>
        </g>
    </g>
</svg>