<?xml version="1.0" encoding="UTF-8" standalone="no"?>
<svg width="37px" height="15px" viewBox="0 0 37 15" version="1.1" xmlns="http://www.w3.org/2000/svg" xmlns:xlink="http://www.w3.org/1999/xlink">
    <!-- Generator: Sketch 3.8.3 (29802) - http://www.bohemiancoding.com/sketch -->
    <title>Fill-4</title>
    <desc>Created with Sketch.</desc>
    <defs></defs>
    <g id="Page-1" stroke="none" stroke-width="1" fill="none" fill-rule="evenodd" opacity="0.5">
        <g id="main_360" transform="translate(-300.000000, -590.000000)" fill="#FFFFFF">
            <g id="Group-7" transform="translate(300.000000, 590.000000)">
                <path d="M30.418133,9.6757333 L36.494933,9.6757333 L36.858666,7.8912 L30.7808,7.8912 L30.418133,9.6757333 L30.418133,9.6757333 Z M20.379733,9.6757333 L26.456533,9.6757333 L26.820266,7.8912 L20.711466,7.8912 L20.379733,9.6757333 L20.379733,9.6757333 Z M12.971733,14.7242667 L15.058133,14.7242667 L15.451733,12.6688 L13.365333,12.6688 L12.971733,14.7242667 L12.971733,14.7242667 Z M13.8784,10.6730667 L15.6928,10.6730667 L17.930666,8.8817842e-16 L15.844266,8.8817842e-16 L13.8784,10.6730667 L13.8784,10.6730667 Z M0,9.4634667 L8.859733,13.8176 L9.2224,11.9434667 L2.389333,8.79893333 L2.389333,8.76906667 L10.461866,5.62346667 L10.8256,3.7792 L0.272,8.1024 L0,9.4634667 L0,9.4634667 Z" id="Fill-4"></path>
            </g>
        </g>
    </g>
</svg>