<?xml version="1.0" encoding="UTF-8" standalone="no"?>
<svg width="37px" height="15px" viewBox="0 0 37 15" version="1.1" xmlns="http://www.w3.org/2000/svg" xmlns:xlink="http://www.w3.org/1999/xlink">
    <!-- Generator: Sketch 3.8.3 (29802) - http://www.bohemiancoding.com/sketch -->
    <title>Fill-4</title>
    <desc>Created with Sketch.</desc>
    <defs></defs>
    <g id="Page-1" stroke="none" stroke-width="1" fill="none" fill-rule="evenodd">
        <g id="locations_1440" transform="translate(-1321.000000, -1112.000000)" fill="#969696">
            <path d="M1351.41813,1121.67573 L1357.49493,1121.67573 L1357.85867,1119.8912 L1351.7808,1119.8912 L1351.41813,1121.67573 L1351.41813,1121.67573 Z M1341.37973,1121.67573 L1347.45653,1121.67573 L1347.82027,1119.8912 L1341.71147,1119.8912 L1341.37973,1121.67573 L1341.37973,1121.67573 Z M1333.97173,1126.72427 L1336.05813,1126.72427 L1336.45173,1124.6688 L1334.36533,1124.6688 L1333.97173,1126.72427 L1333.97173,1126.72427 Z M1334.8784,1122.67307 L1336.6928,1122.67307 L1338.93067,1112 L1336.84427,1112 L1334.8784,1122.67307 L1334.8784,1122.67307 Z M1321,1121.46347 L1329.85973,1125.8176 L1330.2224,1123.94347 L1323.38933,1120.79893 L1323.38933,1120.76907 L1331.46187,1117.62347 L1331.8256,1115.7792 L1321.272,1120.1024 L1321,1121.46347 L1321,1121.46347 Z" id="Fill-4"></path>
        </g>
    </g>
</svg>