<?xml version="1.0" encoding="UTF-8" standalone="no"?>
<svg width="8px" height="16px" viewBox="0 0 8 16" version="1.1" xmlns="http://www.w3.org/2000/svg" xmlns:xlink="http://www.w3.org/1999/xlink">
    <!-- Generator: Sketch 3.8.3 (29802) - http://www.bohemiancoding.com/sketch -->
    <title>Imported Layers</title>
    <desc>Created with Sketch.</desc>
    <defs></defs>
    <g id="Page-1" stroke="none" stroke-width="1" fill="none" fill-rule="evenodd">
        <g id="locations_1440" transform="translate(-220.000000, -1113.000000)" fill="#C8C8C8">
            <path d="M225.184137,1128.53 L225.184137,1121.44608 L227.538946,1121.44608 L227.891424,1118.6853 L225.184137,1118.6853 L225.184137,1116.92266 C225.184137,1116.12335 225.403918,1115.57867 226.53907,1115.57867 L227.986857,1115.57798 L227.986857,1113.10877 C227.736328,1113.07519 226.877023,1113 225.877147,1113 C223.789836,1113 222.360782,1114.28656 222.360782,1116.64933 L222.360782,1118.6853 L220,1118.6853 L220,1121.44608 L222.360782,1121.44608 L222.360782,1128.53 L225.184137,1128.53" id="Imported-Layers"></path>
        </g>
    </g>
</svg>