<?xml version="1.0" encoding="UTF-8" standalone="no"?>
<svg width="12px" height="12px" viewBox="0 0 12 12" version="1.1" xmlns="http://www.w3.org/2000/svg" xmlns:xlink="http://www.w3.org/1999/xlink">
    <!-- Generator: Sketch 3.8.3 (29802) - http://www.bohemiancoding.com/sketch -->
    <title>Page 1</title>
    <desc>Created with Sketch.</desc>
    <defs></defs>
    <g id="Page-1" stroke="none" stroke-width="1" fill="none" fill-rule="evenodd">
        <g id="main_1440" transform="translate(-176.000000, -855.000000)" fill="#FFFFFF">
            <path d="M176,867 L176.051038,866.67355 L177.137278,866.67355 L179.325808,855.343141 L178.223197,855.343141 L178.290927,855 L187.795207,855 L187.116948,858.479884 L186.760325,858.479884 C186.760325,858.479884 186.793709,858.291141 186.793709,858.051038 C186.793709,856.269206 186.114808,855.360154 184.367002,855.360154 L182.737321,855.360154 L181.668093,860.930345 L182.415044,860.930345 C183.823882,860.930345 184.485127,860.331372 184.926814,858.890755 L185.266424,858.890755 L184.417398,863.364755 L184.095121,863.364755 C184.095121,861.941793 183.823561,861.306869 182.347314,861.306869 L181.600685,861.306869 L180.565483,866.655896 L181.837899,866.655896 L181.787182,866.999358 L176,866.999358 L176,867 Z" id="Page-1"></path>
        </g>
    </g>
</svg>