<?xml version="1.0" encoding="UTF-8" standalone="no"?>
<svg width="12px" height="12px" viewBox="0 0 12 12" version="1.1" xmlns="http://www.w3.org/2000/svg" xmlns:xlink="http://www.w3.org/1999/xlink">
    <!-- Generator: Sketch 3.8.3 (29802) - http://www.bohemiancoding.com/sketch -->
    <title>Page 1</title>
    <desc>Created with Sketch.</desc>
    <defs></defs>
    <g id="Page-1" stroke="none" stroke-width="1" fill="none" fill-rule="evenodd">
        <g id="locations_1440" transform="translate(-176.000000, -1115.000000)" fill="#C8C8C8">
            <path d="M176,1127 L176.051038,1126.67355 L177.137278,1126.67355 L179.325808,1115.34314 L178.223197,1115.34314 L178.290927,1115 L187.795207,1115 L187.116948,1118.47988 L186.760325,1118.47988 C186.760325,1118.47988 186.793709,1118.29114 186.793709,1118.05104 C186.793709,1116.26921 186.114808,1115.36015 184.367002,1115.36015 L182.737321,1115.36015 L181.668093,1120.93034 L182.415044,1120.93034 C183.823882,1120.93034 184.485127,1120.33137 184.926814,1118.89076 L185.266424,1118.89076 L184.417398,1123.36475 L184.095121,1123.36475 C184.095121,1121.94179 183.823561,1121.30687 182.347314,1121.30687 L181.600685,1121.30687 L180.565483,1126.6559 L181.837899,1126.6559 L181.787182,1126.99936 L176,1126.99936 L176,1127 Z" id="Page-1"></path>
        </g>
    </g>
</svg>