<?xml version="1.0" encoding="UTF-8" standalone="no"?>
<svg width="17px" height="17px" viewBox="0 0 17 17" version="1.1" xmlns="http://www.w3.org/2000/svg" xmlns:xlink="http://www.w3.org/1999/xlink">
    <!-- Generator: Sketch 3.8.3 (29802) - http://www.bohemiancoding.com/sketch -->
    <title>Page 1</title>
    <desc>Created with Sketch.</desc>
    <defs>
        <polygon id="path-1" points="8.48048366 16.8415842 0 16.8415842 0 0.00531311881 8.48048366 0.00531311881 16.9609673 0.00531311881 16.9609673 16.8415842"></polygon>
    </defs>
    <g id="Page-1" stroke="none" stroke-width="1" fill="none" fill-rule="evenodd">
        <g id="locations_1440" transform="translate(-90.000000, -1112.000000)">
            <g id="Page-1" transform="translate(90.000000, 1112.000000)">
                <g id="Group-3" transform="translate(0.000000, 0.028103)">
                    <mask id="mask-2" fill="white">
                        <use xlink:href="#path-1"></use>
                    </mask>
                    <g id="Clip-2"></g>
                    <path d="M8.48049208,0.00531311881 C6.17731188,0.00531311881 5.88851386,0.0150037129 4.98401287,0.0559715347 C4.0813297,0.0968391089 3.46488614,0.239157178 2.92543069,0.447237624 C2.36776337,0.662368812 1.89482673,0.950212871 1.42337129,1.41820173 C0.951915842,1.88622401 0.661939604,2.35568317 0.445214851,2.90925 C0.235559406,3.44470545 0.0922207921,4.05664975 0.0510168317,4.95266213 C0.00974554455,5.85054579 -1.68316838e-05,6.1372203 -1.68316838e-05,8.42346535 C-1.68316838e-05,10.709677 0.00974554455,10.9963515 0.0510168317,11.8942351 C0.0922207921,12.7902475 0.235559406,13.4021918 0.445214851,13.9376473 C0.661939604,14.4912141 0.951915842,14.9606733 1.42337129,15.4286955 C1.89482673,15.8966844 2.36776337,16.1845285 2.92543069,16.3996597 C3.46488614,16.6077401 4.0813297,16.7500582 4.98401287,16.7909257 C5.88851386,16.831927 6.17731188,16.8415842 8.48049208,16.8415842 C10.7836723,16.8415842 11.0724366,16.831927 11.9769713,16.7909257 C12.8796545,16.7500582 13.496098,16.6077401 14.0355535,16.3996597 C14.5932208,16.1845285 15.0661574,15.8966844 15.5376129,15.4286955 C16.0090683,14.9606733 16.2990446,14.4912141 16.5157693,13.9376473 C16.7254248,13.4021918 16.8687634,12.7902475 16.9099673,11.8942351 C16.9512386,10.9963515 16.9609673,10.709677 16.9609673,8.42346535 C16.9609673,6.1372203 16.9512386,5.85054579 16.9099673,4.95266213 C16.8687634,4.05664975 16.7254248,3.44470545 16.5157693,2.90925 C16.2990446,2.35568317 16.0090683,1.88622401 15.5376129,1.41820173 C15.0661574,0.950212871 14.5932208,0.662368812 14.0355535,0.447237624 C13.496098,0.239157178 12.8796545,0.0968391089 11.9769713,0.0559715347 C11.0724366,0.0150037129 10.7836723,0.00531311881 8.48049208,0.00531311881 M8.48049208,1.52209158 C10.7448921,1.52209158 11.0130881,1.53067946 11.9073218,1.57117946 C12.7341614,1.6086052 13.183197,1.74574381 13.4820604,1.86102847 C13.8778743,2.01373886 14.1604109,2.19615594 14.4571535,2.49075 C14.753896,2.78531064 14.937698,3.06573639 15.0915059,3.45867327 C15.2076446,3.75530569 15.345799,4.2010396 15.3835356,5.0217995 C15.4243356,5.90945792 15.4329535,6.17571535 15.4329535,8.42346535 C15.4329535,10.6711819 15.4243356,10.9374394 15.3835356,11.8250978 C15.345799,12.6458577 15.2076446,13.0915916 15.0915059,13.388224 C14.937698,13.7811609 14.753896,14.0615866 14.4571535,14.3561473 C14.1604109,14.6507413 13.8778743,14.8331584 13.4820604,14.9858688 C13.183197,15.1011535 12.7341614,15.2382921 11.9073218,15.2757178 C11.0132228,15.3162178 10.7450267,15.3248057 8.48049208,15.3248057 C6.21595743,15.3248057 5.94776139,15.3162178 5.05366238,15.2757178 C4.22682277,15.2382921 3.77775347,15.1011535 3.47892376,14.9858688 C3.0831099,14.8331584 2.80057327,14.6507413 2.50383069,14.3561473 C2.20708812,14.0615866 2.02328614,13.7811609 1.86944455,13.388224 C1.7533396,13.0915916 1.61518515,12.6458577 1.57744851,11.8250978 C1.53664851,10.9374394 1.52803069,10.6711819 1.52803069,8.42346535 C1.52803069,6.17571535 1.53664851,5.90945792 1.57744851,5.0217995 C1.61518515,4.2010396 1.7533396,3.75530569 1.86944455,3.45867327 C2.02328614,3.06573639 2.20708812,2.78531064 2.50383069,2.49075 C2.80057327,2.19615594 3.0831099,2.01373886 3.47892376,1.86102847 C3.77775347,1.74574381 4.22682277,1.6086052 5.05362871,1.57117946 C5.94789604,1.53067946 6.21609208,1.52209158 8.48049208,1.52209158" id="Fill-1" fill="#C8C8C8" mask="url(#mask-2)"></path>
                </g>
                <path d="M8.48049208,11.2575965 C6.91928614,11.2575965 5.65364455,10.0012946 5.65364455,8.45156807 C5.65364455,6.90180817 6.91928614,5.64550619 8.48049208,5.64550619 C10.041698,5.64550619 11.3073059,6.90180817 11.3073059,8.45156807 C11.3073059,10.0012946 10.041698,11.2575965 8.48049208,11.2575965 M8.48049208,4.12872772 C6.07537921,4.12872772 4.12563069,6.06410644 4.12563069,8.45156807 C4.12563069,10.8389963 6.07537921,12.774375 8.48049208,12.774375 C10.885605,12.774375 12.8353535,10.8389963 12.8353535,8.45156807 C12.8353535,6.06410644 10.885605,4.12872772 8.48049208,4.12872772" id="Fill-4" fill="#C8C8C8"></path>
                <path d="M14.0250606,3.95792933 C14.0250606,4.51584022 13.5694269,4.96809022 13.007417,4.96809022 C12.4453735,4.96809022 11.9897398,4.51584022 11.9897398,3.95792933 C11.9897398,3.40001844 12.4453735,2.94776844 13.007417,2.94776844 C13.5694269,2.94776844 14.0250606,3.40001844 14.0250606,3.95792933" id="Fill-6" fill="#C8C8C8"></path>
            </g>
        </g>
    </g>
</svg>