<?xml version="1.0" encoding="UTF-8" standalone="no"?>
<svg width="115px" height="24px" viewBox="0 0 115 24" version="1.1" xmlns="http://www.w3.org/2000/svg" xmlns:xlink="http://www.w3.org/1999/xlink">
    <!-- Generator: Sketch 3.8.3 (29802) - http://www.bohemiancoding.com/sketch -->
    <title>Play Market + Page 1</title>
    <desc>Created with Sketch.</desc>
    <defs>
        <polygon id="path-1" points="0 0.418285714 21.2821053 0.418285714 21.2821053 24 0 24"></polygon>
        <polygon id="path-3" points="0 0.418285714 21.2821053 0.418285714 21.2821053 24 0 24"></polygon>
    </defs>
    <g id="Page-1" stroke="none" stroke-width="1" fill="none" fill-rule="evenodd">
        <g id="about_1440" transform="translate(-751.000000, -2788.000000)">
            <g id="Play-Market-+-Page-1" transform="translate(751.000000, 2788.000000)">
                <path d="M32,7.09449637 L32,18.8691589 L33.3355077,18.8691589 L33.3355077,13.7497404 L34.5085888,13.7497404 C37.2517939,13.7497404 38.3165906,12.1079958 38.3165906,10.4485981 C38.3165906,9.70716511 38.1000217,8.66562825 37.2156991,7.92419522 C36.403566,7.2357217 35.3929115,7.09449637 34.1837356,7.09449637 L32,7.09449637 Z M33.3355077,8.33021807 L34.3281148,8.33021807 C35.1943901,8.33021807 36.9810828,8.50674974 36.9810828,10.3779855 C36.9810828,11.7372793 36.0245706,12.5140187 34.4363992,12.5140187 L33.3355077,12.5140187 L33.3355077,8.33021807 Z M39.9047619,6 L39.9047619,18.8691589 L41.2041748,18.8691589 L41.2041748,6 L39.9047619,6 Z M49.3976952,12.5846314 C49.0547945,12.1433022 48.2787563,11.3665628 46.8349641,11.3665628 C44.9219396,11.3665628 43.189389,12.6728972 43.189389,15.1973001 C43.189389,17.7746625 44.939987,19.0809969 46.8349641,19.0809969 C48.1524244,19.0809969 48.9645575,18.3925234 49.3976952,17.8452752 L49.3976952,18.8691589 L50.6971081,18.8691589 L50.6971081,11.5430945 L49.3976952,11.5430945 L49.3976952,12.5846314 Z M46.9793433,12.4963655 C48.134377,12.4963655 49.4698848,13.3260644 49.4698848,15.2149533 C49.4698848,16.662513 48.5675147,17.9511942 46.9793433,17.9511942 C45.4272668,17.9511942 44.5248967,16.768432 44.5248967,15.1973001 C44.5248967,13.4143302 45.6979778,12.4963655 46.9793433,12.4963655 L46.9793433,12.4963655 Z M53.0974125,23 L54.5412046,23 L60.0817569,11.5430945 L58.6379648,11.5430945 L56.2015656,16.7860852 L53.5485975,11.5430945 L52.0687106,11.5430945 L55.5157643,18.1806854 L53.0974125,23 Z M66.9397695,18.8691589 L68.130898,10.6780893 L72.173516,19.3634476 L76.2702761,10.6780893 L77.4072624,18.8691589 L78.778865,18.8691589 L76.9019352,6.42367601 L72.1915634,16.3800623 L67.5714286,6.44132918 L65.568167,18.8691589 L66.9397695,18.8691589 Z M86.9723853,12.5846314 C86.6294847,12.1433022 85.8534464,11.3665628 84.4096543,11.3665628 C82.4966297,11.3665628 80.7640791,12.6728972 80.7640791,15.1973001 C80.7640791,17.7746625 82.5146771,19.0809969 84.4096543,19.0809969 C85.7271146,19.0809969 86.5392477,18.3925234 86.9723853,17.8452752 L86.9723853,18.8691589 L88.2717982,18.8691589 L88.2717982,11.5430945 L86.9723853,11.5430945 L86.9723853,12.5846314 Z M84.5540335,12.4963655 C85.7090672,12.4963655 87.0445749,13.3260644 87.0445749,15.2149533 C87.0445749,16.662513 86.1422048,17.9511942 84.5540335,17.9511942 C83.0019569,17.9511942 82.0995869,16.768432 82.0995869,15.1973001 C82.0995869,13.4143302 83.272668,12.4963655 84.5540335,12.4963655 L84.5540335,12.4963655 Z M90.7262448,18.8691589 L92.0256578,18.8691589 L92.0256578,15.0031153 C92.0256578,13.8026999 92.2422266,13.3084112 92.4587954,13.0259605 C92.6573168,12.7788162 92.98217,12.5669782 93.5055447,12.5669782 C93.7040661,12.5669782 93.9747771,12.6199377 94.2635356,12.8141225 L94.8771472,11.6666667 C94.552294,11.5077882 94.1191563,11.3665628 93.7221135,11.3665628 C92.711459,11.3665628 92.1519896,12.1433022 92.0256578,12.337487 L92.0256578,11.5430945 L90.7262448,11.5430945 L90.7262448,18.8691589 Z M96.0682757,6 L96.0682757,18.8691589 L97.3676886,18.8691589 L97.3676886,15.8504673 L97.6925419,15.5327103 L100.688411,18.8691589 L102.384866,18.8691589 L98.5949119,14.6853583 L101.807349,11.5430945 L100.110894,11.5430945 L97.3676886,14.2616822 L97.3676886,6 L96.0682757,6 Z M109.242879,16.4153686 C109.080452,16.768432 108.809741,17.1391485 108.466841,17.4215992 C108.033703,17.7746625 107.546423,17.9511942 106.932811,17.9511942 C105.633399,17.9511942 104.568602,16.98027 104.550554,15.4620976 L110.379865,15.4620976 C110.41596,14.4911734 110.145249,13.3613707 109.676017,12.7082035 C109.224831,12.0726895 108.304414,11.3665628 106.842574,11.3665628 C104.586649,11.3665628 103.215047,13.0612669 103.215047,15.2502596 C103.215047,17.9688474 105.110024,19.0809969 106.914764,19.0809969 C107.871276,19.0809969 108.719504,18.780893 109.405306,18.1806854 C109.784301,17.8452752 110.109154,17.403946 110.325723,16.9979232 L109.242879,16.4153686 Z M104.640791,14.4029076 C104.839313,13.3084112 105.741683,12.4963655 106.842574,12.4963655 C107.943466,12.4963655 108.827789,13.2554517 109.044357,14.4029076 L104.640791,14.4029076 Z M115,12.7082035 L115,11.5430945 L113.700587,11.5430945 L113.700587,8.89511942 L112.401174,8.89511942 L112.401174,11.5430945 L111.607088,11.5430945 L111.607088,12.7082035 L112.401174,12.7082035 L112.401174,18.8691589 L113.700587,18.8691589 L113.700587,12.7082035 L115,12.7082035 Z" id="Play-Market" fill="#67B7B8"></path>
                <g id="Page-1">
                    <path d="M1.15789474,0 C1.20013839,0.0155718927 1.24124032,0.0359351371 1.28120054,0.0586940572 L15.0526316,8.27945558 L12.0510487,11.4285714 L1.15789474,0 Z" id="Fill-1" fill="#67B7B8"></path>
                    <g id="Group-5">
                        <mask id="mask-2" fill="white">
                            <use xlink:href="#path-1"></use>
                        </mask>
                        <g id="Clip-4"></g>
                        <path d="M13.0439158,12.2091429 L16.3346526,8.96114286 L20.8689684,11.5074286 C21.1271789,11.6525714 21.2823368,11.9154286 21.2823368,12.2091429 C21.2823368,12.5028571 21.1271789,12.7657143 20.8689684,12.9108571 L16.3346526,15.4571429 L13.0439158,12.2091429 Z" id="Fill-3" fill="#67B7B8" mask="url(#mask-2)"></path>
                    </g>
                    <g id="Group-8">
                        <mask id="mask-4" fill="white">
                            <use xlink:href="#path-3"></use>
                        </mask>
                        <g id="Clip-7"></g>
                        <path d="M0.00324210526,23.3065143 C0.000926315787,23.2848 -0.00023157895,23.2630857 -0.00023157895,23.2413714 L-0.00023157895,1.17622857 C-0.00023157895,1.15451429 0.000926315787,1.13394286 0.00324210526,1.11222857 L11.2464,12.2093714 L0.00324210526,23.3065143 Z" id="Fill-6" fill="#67B7B8" mask="url(#mask-4)"></path>
                    </g>
                    <path d="M12.0510487,12.5714286 L15.0526316,15.7205444 L1.28120054,23.9413059 C1.24124032,23.9640649 1.20013839,23.9844281 1.15789474,24 L12.0510487,12.5714286 Z" id="Fill-9" fill="#67B7B8"></path>
                </g>
            </g>
        </g>
    </g>
</svg>